﻿Länder der Herkunft

Tonnen

Länder der Herkunft

Tonnen

Nußbaum-, Buchen- u. a. hartes Holt,
längs gesägt usw.

Einfuhr
Österreich-Ungarn.......

Ver. Staaten von Amerika
Ausfuhr

24 622
10075
7 57?

12 l82

Weiches Laubholz, längs gesägt, nicht
gehobelt usw.

Einfuhr

Rußland...............

Ver. Staaten von Amerika
Ausfuhr

66 646
47 389
13427
2897

Nadelholz, längs gesägt, nicht gehobelt
usw.

Einfuhr

Niederlande ...........

Norwegen ..............

Österreich-Ungarn......

Rumänien...............

Rußland................

Finnland ..............

Schweden ..............

Ver. Staaten von Amerika
Ausfuhr

Zedernholz.

Einfuhr

Cuba ..................

Ver. Staaten von Amerika
$ Ausfuhr

1755 779
22 328
15 669
231 699

-7 947
412774
369 702
397 412
-74 597
77 938

22 621
5 413
7 795
573

Nutzholz von Buchsbaum, Mahagoni,
Polisander; Eben-, Tiek-, Pockholz.

Einfuhr	37003

Brit.-Westafrika ....... 7184

Brit.-Jndien usw............... 7	849

Niederländ.-Jndien usw. .	;	749

Ausfuhr	3 692

Eisenbahnschwellen aus	Holz.

Einfuhr	233 054

Österreich-Ungarn ............ 71	061

Rußland......................  161113

Ausfuhr	77333

Faßholz von Eichenholz, ungefärbt,
nicht gehobelt.

Einfuhr	43 817

Österreich-Ungarn.........	6	779

Rußland.......................  20408

Ver. Staaten von Amerika	16186

Ausfuhr	2170

Holz zu Holzmasse, Holzschliff, Zellstoff.

1284 873
260 306
1 021 777
66 880

Österreich-Ungarn
Rußland.

Einfuhr

Ausfuhr

Korkholz, unbearbeitet; Zierkorkholz.

Portugal
Spanien.
Algerien.

Einfuhr

Ausfuhr

20 336
12 245
1 061
6 046
1078

104