﻿W»6« >« Herkunft

Tonnen

känder »er Herkunft	Tonne»

Bettfedern, roh.

Einfuhr	9190

Frankreich ..................... 826

Großbritannien.................. 381

Österreich-Ungarn.......	3	187

Rußland........................  9x8

China......................... 3	321

Ausfuhr	562

Reiherfedern,
nicht jugerichtet.

Einfuhr	1,972

Frankreich ..................  0,284

Österreich-Ungarn.......	0,288

Ausfuhr	0,347

Australischer Bund.......

Neuseeland..............

Ausfuhr

14 931

3 062
1226

Krenjjuchtwolle (Rückenwäsche).
Einfuhr

Frankreich ....
Großbritannien
Rußland..

Ausfuhr

2 812
5 77
464
830
1136

Kreujjuchtwolle, nach der Schur
gewaschen.

Belgien ..

Frankreich .......

Großbritannien..
Österreich-Ungarn

Einfuhr

Ausfuhr

16271
9 756
3 323
1 918

324

4141

Rindvieh-, Hirsch-, Hunde- und
ähnliche grobe Tierhaare.

Einfuhr	9539

Rußland................ 961

Ver. Staaten	von Amerika	4 6x;

Ausfuhr	4926

Pferdehaare	(aus der Mähne oder

dem Schweife).	
Einfuhr	2095
Rußland				898
Argentinien		209
Ausfuhr	377
108	

Straußfedern,
nicht jugerichtet.

Einfuhr

Brit.-Südafrika........

Ausfuhr

Borsten; Borstenersatzstoffe.
Einfuhr

98

88

12

Österreich-Ungarn

Rußland.........

Brit.-Jnbien usw.
China....

Ausfuhr

3 449

67

2 224
65
884
2 016

Seidengehäuse (Setdenkokons).

Einfuhr j 4,1