﻿LLildrr ixt Herkunft

Tonnen

kLnber »er Herkunft

Tonnen

6. Erzeugnisse der Forstwirtschaft.

Eichenholt, unbearbeitet oder nur quer
bearbeitet.

Österreich,Ungarn
Rußland.,

Einfuhr

Ausfuhr

134 7i 4
40 708
86408
16 100

Nußbaum-, Buchen- und anderes
hartes Holz, unbearbeitet oder nur quer
bearbeitet.

Einfuhr

Frankreich .............

österreich-Ungarn.......

Rußland.................

Schweiz ................

Ver. Staaten von Amerika
Ausfuhr 0

128 126
12 244
41133
26793
6403

35 375
30 979

Weiches Laubholz, unbearbeitet oder
nur quer bearbeitet.

Einfuhr

Rußland.................

Franz.,Westafrika .....

Ver. Staaten von Amerika
Ausfuhr *)

278 407
152 728
69 270
33 825
5-47

Nadelholz, unbearbeitet oder nur quer
bearbeitet.

Hsterreich,Ungarn

Einfuhr

2 847 201
1143 768

Rußland >

Ausfuhr

Grubenholz.

Einfuhr

Österreich,Ungarn.......

Rußland..............

Hartes Holz,
längs beschlagen usw.
Einfuhr

Rußland.................

Japan .................

Ver. Staaten von Amerika
Ausfuhr

Nadelholz,

längs beschlagen usw.

i 692 963
i6; 795

237 765
159 oi4
74887

54 302
14 328
19 206
15378
4871

Österreich,Ungarn
Rußland..
Finnland .
Schweden >

Einfuhr

Ausfuhr

273 820
24 22;
119 256
52319
68 100
10 468

Eichenholz, längs gesägt, nicht gehobel
usw.

Einfuhr 68356
Österreich,Ungarn .......	22287

Rußland...............	13432

Ver. Staaten von Amerika 26 490
Ausfuhr 14862

!) Einschl. des längs beschlagenen.

103