m 
30# 
rg 
• . - : 
% 
mm 
. 
A«.#l 
S88 
•;v: 
' . 
MB 
•' 
/ : 
811 
T"v 
; : 
W 
m 
« ' 
: 
L ■ 
i?, t,- 
Ļ' 
K!"- 
M 
agì: 
M; 
%':; 
SS 
ï- •! 
ms 1} 
%A"W 
L 
aö* 
9 
1 
■ 
,,V 
■ 
S# 
Ì: 
A m 
/ 
«mg 
. 
^ : 
N: 
1%, 
@3B 
mm# 
J 
mW 
#ËÊ0Ê 
~'-ti'‘Y < 'l--.-'A,'<&j Ätt'-'-Vi,*.'V SÌ*Ķ,lï Cs- y ',', V. ?>» > Í