14* 
211 
Von 100 ha landwirt 
schaftlich benutzter Fläche 
entfallen auf nach 
stehende Größenklasse 
Von je 100 Betrieben 
entfallen auf nach 
stehende Größenklasse 
lungs 
jähr 
Bundes 
staat 
5— 
20— 
100 
hau 
dar 
über 
20- 
100 
hau. 
dar 
über 
2—5 
2—5 
unt. 
2 ha 
unt. 
2 ha 
20 
100 
20 
100 
ha 
ha 
ha 
ha 
ha 
ha 
1882 
1907 
15 
22 
82 
Preußen 
'91 
,76 
17 
2* 
1882 
1907 
:> 
80 
I' 
14 
82 
Bayern 
,55 
• U 
84 
24 
88 
52 
2' 
1882 
1907 
811 
39.. 
30.= 
Sachsen . 
,ii 
21.- 
57 
15 
30.= 
Württem- 1882 
berg 1907 
58 
26 
17 
10 
22 
18 
20 
58 
28 
17 
46 
21 
17 
1882 
1907 
54 
2 s 
2s 
42 
13.= 
Baden . 
26 
14 
43 
59 
14 
30 
1882 
1907 
5 7 
22 
ls 
49 
Hessen 
63 
21 
50 
16 
Meckl.- 
Schwerin 
1882 
1907 
7s 
27 
59 
78 
7.. 
25 
59 
L-achsen- 
Weimar 
1882 
1907 
48 
25 
19 
45 
24 
12 
52 
25 
12 
17 
22 
6.. 
12 
Meckl.- 
Strelitz 
1882 
1907 
83 
4.= 
28 
60 
S3 
28 
60 
Olden 
1882 
1907 
28 
53 
22 
16 
13 
49 
bürg 
54 
ls 
12 
46 
19